{
  "project_info": {
    "project_number": "909308919534",
    "firebase_url": "https://fir-notification-f5fed.firebaseio.com",
    "project_id": "fir-notification-f5fed",
    "storage_bucket": "fir-notification-f5fed.appspot.com"
  },
  "client": [
    {
      "client_info": {
        "mobilesdk_app_id": "1:909308919534:android:d1867e5b3d3ebf426b7dff",
        "android_client_info": {
          "package_name": "com.suusoft.notificationdemo"
        }
      },
      "oauth_client": [
        {
          "client_id": "909308919534-jkjac5rh1ubo5b4rp3dv52hjjij4mvel.apps.googleusercontent.com",
          "client_type": 3
        }
      ],
      "api_key": [
        {
          "current_key": "AIzaSyB4rmXgVOVPMR4RUlUYa_aFwetnRkx3g1k"
        }
      ],
      "services": {
        "appinvite_service": {
          "other_platform_oauth_client": [
            {
              "client_id": "909308919534-jkjac5rh1ubo5b4rp3dv52hjjij4mvel.apps.googleusercontent.com",
              "client_type": 3
            }
          ]
        }
      }
    }
  ],
  "configuration_version": "1"
}